[
    {
        "id": "joviality",
        "audios": [
            {
                "id": "Task_Question_Joviality",
                "path": "D:\\art\\PyCharm\\projects\\Bachelor-Project\\src\\webrtc_client/collected_data/Igor_Arshinov/session_5/audios/dialogflow/joviality/Task_Question_Joviality_0.wav",
                "emotion_label": "joviality"
            },
            {
                "id": "Describe_Your_Emotion_In_Multiple_Sentences_After_Task",
                "path": "D:\\art\\PyCharm\\projects\\Bachelor-Project\\src\\webrtc_client/collected_data/Igor_Arshinov/session_5/audios/dialogflow/joviality/Describe_Your_Emotion_In_Multiple_Sentences_After_Task.wav",
                "emotion_label": "Joviality",
                "affective_values": {
                    "arousal_value": 0.5,
                    "valence_value": 0.91
                }
            }
        ]
    },
    {
        "id": "attentiveness",
        "audios": [
            {
                "id": "Task_Question_Attentiveness",
                "path": "D:\\art\\PyCharm\\projects\\Bachelor-Project\\src\\webrtc_client/collected_data/Igor_Arshinov/session_5/audios/dialogflow/attentiveness/Task_Question_Attentiveness_0.wav",
                "emotion_label": "attentiveness"
            },
            {
                "id": "Describe_Your_Emotion_In_Multiple_Sentences_After_Task",
                "path": "D:\\art\\PyCharm\\projects\\Bachelor-Project\\src\\webrtc_client/collected_data/Igor_Arshinov/session_5/audios/dialogflow/attentiveness/Describe_Your_Emotion_In_Multiple_Sentences_After_Task.wav",
                "emotion_label": "Attentiveness",
                "affective_values": {
                    "arousal_value": 0.99,
                    "valence_value": 0.5
                }
            }
        ]
    },
    {
        "id": "fatigue",
        "audios": [
            {
                "id": "Task_Question_Fatigue",
                "path": "D:\\art\\PyCharm\\projects\\Bachelor-Project\\src\\webrtc_client/collected_data/Igor_Arshinov/session_5/audios/dialogflow/fatigue/Task_Question_Fatigue_0.wav",
                "emotion_label": "fatigue"
            },
            {
                "id": "Task_Question_Fatigue",
                "path": "D:\\art\\PyCharm\\projects\\Bachelor-Project\\src\\webrtc_client/collected_data/Igor_Arshinov/session_5/audios/dialogflow/fatigue/Task_Question_Fatigue_1.wav",
                "emotion_label": "fatigue"
            },
            {
                "id": "Describe_Your_Emotion_In_Multiple_Sentences_After_Task",
                "path": "D:\\art\\PyCharm\\projects\\Bachelor-Project\\src\\webrtc_client/collected_data/Igor_Arshinov/session_5/audios/dialogflow/fatigue/Describe_Your_Emotion_In_Multiple_Sentences_After_Task.wav",
                "emotion_label": "Fatigue",
                "affective_values": {
                    "arousal_value": 0.0,
                    "valence_value": 0.5
                }
            }
        ]
    },
    {
        "id": "sadness",
        "audios": [
            {
                "id": "Task_Question_Sadness",
                "path": "D:\\art\\PyCharm\\projects\\Bachelor-Project\\src\\webrtc_client/collected_data/Igor_Arshinov/session_5/audios/dialogflow/sadness/Task_Question_Sadness_0.wav",
                "emotion_label": "sadness"
            },
            {
                "id": "Describe_Your_Emotion_In_Multiple_Sentences_After_Task",
                "path": "D:\\art\\PyCharm\\projects\\Bachelor-Project\\src\\webrtc_client/collected_data/Igor_Arshinov/session_5/audios/dialogflow/sadness/Describe_Your_Emotion_In_Multiple_Sentences_After_Task.wav",
                "emotion_label": "Sadness",
                "affective_values": {
                    "arousal_value": 0.18,
                    "valence_value": 0.0
                }
            }
        ]
    }
]