[
    {
        "id": "Small_Talk_About_Language",
        "path": "D:\\art\\PyCharm\\projects\\Bachelor-Project\\src\\webrtc_client/collected_data/Igor_Arshinov/session_5/audios/dialogflow/Small_Talk_About_Language.wav",
        "emotion_label": "Joviality",
        "affective_values": {
            "arousal_value": 0.86,
            "valence_value": 0.21
        }
    },
    {
        "id": "Small_Talk_About_Emotions_And_Question_About_Robot_Emotions",
        "path": "D:\\art\\PyCharm\\projects\\Bachelor-Project\\src\\webrtc_client/collected_data/Igor_Arshinov/session_5/audios/dialogflow/Small_Talk_About_Emotions_And_Question_About_Robot_Emotions.wav",
        "emotion_label": "Joviality",
        "affective_values": {
            "arousal_value": 0.86,
            "valence_value": 0.21
        }
    },
    {
        "id": "Small_Talk_About_Favorite_Artists",
        "path": "D:\\art\\PyCharm\\projects\\Bachelor-Project\\src\\webrtc_client/collected_data/Igor_Arshinov/session_5/audios/dialogflow/Small_Talk_About_Favorite_Artists.wav",
        "emotion_label": "Joviality",
        "affective_values": {
            "arousal_value": 0.86,
            "valence_value": 0.21
        }
    }
]